\relax 
\catcode `"\active 
\select@language{brazil}
\@writefile{toc}{\select@language{brazil}}
\@writefile{lof}{\select@language{brazil}}
\@writefile{lot}{\select@language{brazil}}
\@writefile{toc}{\contentsline {section}{\numberline {1}Introdu\IeC {\c c}\IeC {\~a}o}{2}}
\@writefile{toc}{\contentsline {section}{\numberline {2}Procedimentos}{3}}
\@writefile{toc}{\contentsline {subsection}{\numberline {2.1}M\IeC {\'e}todo de Jacobi no Paradigma Sequencial}{3}}
\@writefile{toc}{\contentsline {subsection}{\numberline {2.2}M\IeC {\'e}todo de Jacobi no Paradigma Paralelo}{3}}
\@writefile{toc}{\contentsline {subsection}{\numberline {2.3}Compilando e Executando o C\IeC {\'o}digo}{3}}
\@writefile{toc}{\contentsline {subsection}{\numberline {2.4}Considera\IeC {\c c}\IeC {\~o}es Importantes}{4}}
\@writefile{toc}{\contentsline {section}{\numberline {3}Resultados}{5}}
\@writefile{lof}{\contentsline {figure}{\numberline {1}{\ignorespaces Execu\IeC {\c c}\IeC {\~a}o Sequencial Medida em Milissegundos (Ms)\relax }}{5}}
\providecommand*\caption@xref[2]{\@setref\relax\@undefined{#1}}
\newlabel{Tabela 1}{{1}{5}}
\@writefile{lof}{\contentsline {figure}{\numberline {2}{\ignorespaces Execu\IeC {\c c}\IeC {\~a}o Paralela Medida em Milissegundos (Ms)\relax }}{5}}
\newlabel{Tabela 2}{{2}{5}}
\@writefile{toc}{\contentsline {section}{\numberline {4}Considera\IeC {\c c}\IeC {\~o}es Finais e Conclus\IeC {\~o}es}{7}}
\@writefile{toc}{\contentsline {section}{\numberline {5}Refer\IeC {\^e}ncias Bibliogr\IeC {\'a}ficas}{8}}
